; Engine configuration file.
; It's best edited using the editor UI and not directly,
; since the parameters that go here are not all obvious.
;
; Format:
;   [section] ; section goes between []
;   param=value ; assign values to parameters

config_version=4

_global_script_classes=[  ]
_global_script_class_icons={

}

[application]

config/name="dreadshot"
run/main_scene="res://levels/menu/main_menu.tscn"
boot_splash/bg_color=Color( 0, 0, 0, 1 )
config/icon="res://icon.png"
config/quit_on_go_back=false

[audio]

default_bus_layout="res://config/default_bus_layout.tres"

[autoload]

Score="*res://logic/score.gd"
Config="*res://config/config.gd"

[display]

window/size/width=1920
window/size/height=1080
window/size/test_width=1920
window/size/test_height=1080
window/stretch/mode="2d"
window/stretch/aspect="keep"

[importer_defaults]

texture={
"compress/bptc_ldr": 0,
"compress/hdr_mode": 0,
"compress/lossy_quality": 0.7,
"compress/mode": 2,
"compress/normal_map": 0,
"detect_3d": false,
"flags/anisotropic": false,
"flags/filter": false,
"flags/mipmaps": false,
"flags/repeat": true,
"flags/srgb": 1,
"process/HDR_as_SRGB": false,
"process/fix_alpha_border": true,
"process/invert_color": false,
"process/premult_alpha": false,
"size_limit": 0,
"stream": false,
"svg/scale": 1.0
}
wav={
"compress/mode": 0,
"edit/loop": true,
"edit/normalize": false,
"edit/trim": false,
"force/8_bit": false,
"force/max_rate": false,
"force/max_rate_hz": 44100,
"force/mono": false
}

[input]

move_up={
"deadzone": 0.1,
"events": [ Object(InputEventKey,"resource_local_to_scene":false,"resource_name":"","device":0,"alt":false,"shift":false,"control":false,"meta":false,"command":false,"pressed":false,"scancode":87,"unicode":0,"echo":false,"script":null)
, Object(InputEventJoypadMotion,"resource_local_to_scene":false,"resource_name":"","device":0,"axis":1,"axis_value":-1.0,"script":null)
 ]
}
move_down={
"deadzone": 0.1,
"events": [ Object(InputEventKey,"resource_local_to_scene":false,"resource_name":"","device":0,"alt":false,"shift":false,"control":false,"meta":false,"command":false,"pressed":false,"scancode":83,"unicode":0,"echo":false,"script":null)
, Object(InputEventJoypadMotion,"resource_local_to_scene":false,"resource_name":"","device":0,"axis":1,"axis_value":1.0,"script":null)
 ]
}
move_left={
"deadzone": 0.1,
"events": [ Object(InputEventKey,"resource_local_to_scene":false,"resource_name":"","device":0,"alt":false,"shift":false,"control":false,"meta":false,"command":false,"pressed":false,"scancode":65,"unicode":0,"echo":false,"script":null)
, Object(InputEventJoypadMotion,"resource_local_to_scene":false,"resource_name":"","device":0,"axis":0,"axis_value":-1.0,"script":null)
 ]
}
move_right={
"deadzone": 0.1,
"events": [ Object(InputEventKey,"resource_local_to_scene":false,"resource_name":"","device":0,"alt":false,"shift":false,"control":false,"meta":false,"command":false,"pressed":false,"scancode":68,"unicode":0,"echo":false,"script":null)
, Object(InputEventJoypadMotion,"resource_local_to_scene":false,"resource_name":"","device":0,"axis":0,"axis_value":1.0,"script":null)
 ]
}
aim_up={
"deadzone": 0.1,
"events": [ Object(InputEventKey,"resource_local_to_scene":false,"resource_name":"","device":0,"alt":false,"shift":false,"control":false,"meta":false,"command":false,"pressed":false,"scancode":73,"unicode":0,"echo":false,"script":null)
, Object(InputEventJoypadMotion,"resource_local_to_scene":false,"resource_name":"","device":0,"axis":3,"axis_value":-1.0,"script":null)
 ]
}
aim_down={
"deadzone": 0.1,
"events": [ Object(InputEventKey,"resource_local_to_scene":false,"resource_name":"","device":0,"alt":false,"shift":false,"control":false,"meta":false,"command":false,"pressed":false,"scancode":75,"unicode":0,"echo":false,"script":null)
, Object(InputEventJoypadMotion,"resource_local_to_scene":false,"resource_name":"","device":0,"axis":3,"axis_value":1.0,"script":null)
 ]
}
aim_left={
"deadzone": 0.1,
"events": [ Object(InputEventKey,"resource_local_to_scene":false,"resource_name":"","device":0,"alt":false,"shift":false,"control":false,"meta":false,"command":false,"pressed":false,"scancode":74,"unicode":0,"echo":false,"script":null)
, Object(InputEventJoypadMotion,"resource_local_to_scene":false,"resource_name":"","device":0,"axis":2,"axis_value":-1.0,"script":null)
 ]
}
aim_right={
"deadzone": 0.1,
"events": [ Object(InputEventKey,"resource_local_to_scene":false,"resource_name":"","device":0,"alt":false,"shift":false,"control":false,"meta":false,"command":false,"pressed":false,"scancode":76,"unicode":0,"echo":false,"script":null)
, Object(InputEventJoypadMotion,"resource_local_to_scene":false,"resource_name":"","device":0,"axis":2,"axis_value":1.0,"script":null)
 ]
}
main_command={
"deadzone": 0.5,
"events": [ Object(InputEventKey,"resource_local_to_scene":false,"resource_name":"","device":0,"alt":false,"shift":false,"control":false,"meta":false,"command":false,"pressed":false,"scancode":16777237,"unicode":0,"echo":false,"script":null)
, Object(InputEventJoypadButton,"resource_local_to_scene":false,"resource_name":"","device":0,"button_index":0,"pressure":0.0,"pressed":false,"script":null)
 ]
}
reset={
"deadzone": 0.5,
"events": [ Object(InputEventKey,"resource_local_to_scene":false,"resource_name":"","device":0,"alt":false,"shift":false,"control":false,"meta":false,"command":false,"pressed":false,"scancode":82,"unicode":0,"echo":false,"script":null)
 ]
}
escape={
"deadzone": 0.5,
"events": [ Object(InputEventKey,"resource_local_to_scene":false,"resource_name":"","device":0,"alt":false,"shift":false,"control":false,"meta":false,"command":false,"pressed":false,"scancode":16777217,"unicode":0,"echo":false,"script":null)
 ]
}

[layer_names]

3d_physics/layer_1="environment"
3d_physics/layer_2="units"

[rendering]

quality/intended_usage/framebuffer_allocation=0
quality/intended_usage/framebuffer_allocation.mobile=0
threads/thread_model=2
environment/default_clear_color=Color( 0, 0, 0, 1 )
environment/default_environment="res://config/default_env.tres"
